FANCY
crosshair0000.bmp 1
crosshair0000.bmp 1
crosshair0000.bmp 1
crosshair0000.bmp 1
crosshair0000.bmp 1
crosshair0000.bmp 1
crosshair0000.bmp 1
crosshair0000.bmp 1
crosshair0000.bmp 1
crosshair0000.bmp 1
crosshair0000.bmp 1
crosshair0000.bmp 1
crosshair0000.bmp 1
crosshair0001.bmp 2
crosshair0001.bmp 2